module gitlab.com/TIoJIuHa/mai-practice-hw3

go 1.19

require (
	github.com/gofrs/uuid v4.4.0+incompatible
	github.com/golang/mock v1.6.0
	github.com/stretchr/testify v1.8.4
	gitlab.com/slon/shad-go v0.0.0-20230521151325-c3874bfe536c
)

require (
	github.com/davecgh/go-spew v1.1.1 // indirect
	github.com/kr/pretty v0.3.1 // indirect
	github.com/pmezard/go-difflib v1.0.0 // indirect
	gopkg.in/yaml.v3 v3.0.1 // indirect
)
